…
scale_colour_discrete = scale_colour_viridis_d
scale_fill_discrete = scale_fill_viridis_d
data("ny_noaa")
```

``` r
ny_noaa %>% 
  count(snow) %>%
  arrange(desc(n))
```

    ## # A tibble: 282 × 2
    ##     snow       n
    ##    <int>   <int>
    ##  1     0 2008508
    ##  2    NA  381221
    ##  3    25   31022
    ##  4    13   23095
    ##  5    51   18274
    ##  6    76   10173
    ##  7     8    9962
    ##  8     5    9748
    ##  9    38    9197
    ## 10     3    8790
    ## # ℹ 272 more rows
…
    ## # A tibble: 4 × 2
    ##   source        n
    ##   <chr>     <int>
    ## 1 jan_2020  12420
    ## 2 jan_2024  18861
    ## 3 july_2020 21048
    ## 4 july_2024 47156

``` r
combined_data
```

    ## # A tibble: 99,485 × 8
    ##    ride_id   rideable_type weekdays duration start_station_name end_station_name
    ##    <chr>     <chr>         <chr>       <dbl> <chr>              <chr>           
    ##  1 86AE148E… classic_bike  Sunday      19.7  Picnic Point       Yankee Ferry Te…
    ##  2 FCF07A30… electric_bike Thursday     7.68 W 54 St & 9 Ave    W 42 St & 8 Ave 
    ##  3 D8397E84… classic_bike  Thursday    24.5  12 Ave & W 40 St   W 84 St & Amste…
    ##  4 E575690C… electric_bike Tuesday      3.53 Grand St & Haveme… S 4 St & Rodney…
    ##  5 184AABED… electric_bike Wednesd…    24.1  Broadway & Kent A… Henry St & Degr…
    ##  6 ACA61A92… classic_bike  Saturday     7.83 E 1 St & 1 Ave     Mercer St & Spr…
    ##  7 C48F946C… classic_bike  Sunday       4.85 Lenox Ave & W 117… Frederick Dougl…
    ##  8 F3072F6E… classic_bike  Saturday     4.33 W 53 St & 10 Ave   West End Ave & …
    ##  9 8A283594… electric_bike Thursday    12.6  W 10 St & Washing… Stanton St & Ch…
    ## 10 EFFCEE4C… electric_bike Friday      10.6  W 55 St & 6 Ave    Broadway & W 41…
    ## # ℹ 99,475 more rows
    ## # ℹ 2 more variables: member_casual <chr>, source <chr>
…
